lard,52
lais,52
rnay,53
agny,54
lain,54
otte,55
ogne,55
lieu,57
ouse,59
arne,59
tier,60
nais,62
nard,63
gnan,63
bach,66
fort,66
igné,66
vaux,69
lier,70
rtin,71
ment,72
illé,74
rges,75
amps,75
gnon,76
roux,78
ques,78
teau,81
ourg,82
rand,84
esse,85
ance,86
nois,87
bert,91
sson,92
aire,93
anne,93
gnes,95
eine,95
euse,97
ains,98
enne,98
ault,100
ange,103
llac,104
ches,106
-mer,106
enay,108
ssac,111
nges,112
oire,116
llon,129
erre,133
lers,144
ller,149
ette,158
eaux,163
nnes,163
gues,165
euil,166
aine,172
ieux,175
gnac,176
agne,185
ines,186
onne,188
bois,214
illy,222
heim,228
elle,253
ière,253
iers,268
igny,354
mont,402
ères,487
lles,501
ourt,720
ille,1304
